ripple_carry_adder_beh/wave.vcd
$date
	Mon Mar 30 13:09:12 2026
$end
$version
	Icarus Verilog
$end
$timescale
	1s
$end
$scope module ripple_beh_tb $end
$var wire 4 ! sum [3:0] $end
$var wire 1 " cout $end
$var reg 4 # a [3:0] $end
$var reg 4 $ b [3:0] $end
$var reg 1 % cin $end
$var integer 32 & i [31:0] $end
$scope module dut $end
$var wire 4 ' a [3:0] $end
$var wire 4 ( b [3:0] $end
$var wire 1 % cin $end
$var reg 1 " cout $end
$var reg 4 ) sum [3:0] $end
$upscope $end
$upscope $end
$enddefinitions $end
$comment Show the parameter values. $end
$dumpall
$end
#0
$dumpvars
b0 )
b0 (
b0 '
b0 &
0%
b0 $
b0 #
0"
b0 !
$end
#10
b1 !
b1 )
1%
b1 &
#20
b1 $
b1 (
0%
b10 &
#30
b10 !
b10 )
1%
b11 &
#40
b10 $
b10 (
0%
b100 &
#50
b11 !
b11 )
1%
b101 &
#60
b11 $
b11 (
0%
b110 &
#70
b100 !
b100 )
1%
b111 &
#80
b100 $
b100 (
0%
b1000 &
#90
b101 !
b101 )
1%
b1001 &
#100
b101 $
b101 (
0%
b1010 &
#110
b110 !
b110 )
1%
b1011 &
#120
b110 $
b110 (
0%
b1100 &
#130
b111 !
b111 )
1%
b1101 &
#140
b111 $
b111 (
0%
b1110 &
#150
b1000 !
b1000 )
1%
b1111 &
#160
b10000 &
