ripple_carry_adder/wave.vcd
$date
	Mon Mar 30 12:18:24 2026
$end
$version
	Icarus Verilog
$end
$timescale
	1s
$end
$scope module ripple_tb $end
$var wire 4 ! sum [3:0] $end
$var wire 1 " cout $end
$var reg 4 # a [3:0] $end
$var reg 4 $ b [3:0] $end
$var reg 1 % cin $end
$var integer 32 & i [31:0] $end
$scope module dut $end
$var wire 4 ' a [3:0] $end
$var wire 4 ( b [3:0] $end
$var wire 1 % cin $end
$var wire 4 ) sum [3:0] $end
$var wire 1 " cout $end
$var wire 1 * c3 $end
$var wire 1 + c2 $end
$var wire 1 , c1 $end
$scope module fa0 $end
$var wire 1 - a $end
$var wire 1 . b $end
$var wire 1 % cin $end
$var wire 1 , cout $end
$var wire 1 / sum $end
$upscope $end
$scope module fa1 $end
$var wire 1 0 a $end
$var wire 1 1 b $end
$var wire 1 , cin $end
$var wire 1 + cout $end
$var wire 1 2 sum $end
$upscope $end
$scope module fa2 $end
$var wire 1 3 a $end
$var wire 1 4 b $end
$var wire 1 + cin $end
$var wire 1 * cout $end
$var wire 1 5 sum $end
$upscope $end
$scope module fa3 $end
$var wire 1 6 a $end
$var wire 1 7 b $end
$var wire 1 * cin $end
$var wire 1 " cout $end
$var wire 1 8 sum $end
$upscope $end
$upscope $end
$upscope $end
$enddefinitions $end
$comment Show the parameter values. $end
$dumpall
$end
#0
$dumpvars
08
07
06
05
04
03
02
01
00
0/
0.
0-
0,
0+
0*
b0 )
b0 (
b0 '
b0 &
0%
b0 $
b0 #
0"
b0 !
$end
#10
b1 !
b1 )
1/
1%
b1 &
#20
1.
b1 !
b1 )
1/
b1 $
b1 (
0%
b10 &
#30
12
1,
b10 !
b10 )
0/
1%
b11 &
#40
05
0+
0,
0.
11
b10 !
b10 )
0/
b10 $
b10 (
0%
b100 &
#50
b11 !
b11 )
1/
1%
b101 &
#60
1.
b11 !
b11 )
1/
b11 $
b11 (
0%
b110 &
#70
15
1+
02
1,
b100 !
b100 )
0/
1%
b111 &
#80
08
0+
0*
15
0,
0.
01
14
b100 !
b100 )
0/
b100 $
b100 (
0%
b1000 &
#90
b101 !
b101 )
1/
1%
b1001 &
#100
1.
b101 !
b101 )
1/
b101 $
b101 (
0%
b1010 &
#110
12
1,
b110 !
b110 )
0/
1%
b1011 &
#120
08
0*
15
0+
0,
0.
11
b110 !
b110 )
0/
b110 $
b110 (
0%
b1100 &
#130
b111 !
b111 )
1/
1%
b1101 &
#140
1.
b111 !
b111 )
1/
b111 $
b111 (
0%
b1110 &
#150
18
1*
05
1+
02
1,
b1000 !
b1000 )
0/
1%
b1111 &
#160
b10000 &
