genvar/wave.vcd
$date
	Fri Apr 17 09:55:31 2026
$end
$version
	Icarus Verilog
$end
$timescale
	1s
$end
$scope module inverter_tb $end
$var wire 8 ! y [7:0] $end
$var reg 8 " a [7:0] $end
$var integer 32 # i [31:0] $end
$scope module dut $end
$var wire 8 $ a [7:0] $end
$var wire 8 % y [7:0] $end
$scope begin inv_block[0] $end
$var parameter 2 & i $end
$upscope $end
$scope begin inv_block[1] $end
$var parameter 2 ' i $end
$upscope $end
$scope begin inv_block[2] $end
$var parameter 3 ( i $end
$upscope $end
$scope begin inv_block[3] $end
$var parameter 3 ) i $end
$upscope $end
$scope begin inv_block[4] $end
$var parameter 4 * i $end
$upscope $end
$scope begin inv_block[5] $end
$var parameter 4 + i $end
$upscope $end
$scope begin inv_block[6] $end
$var parameter 4 , i $end
$upscope $end
$scope begin inv_block[7] $end
$var parameter 4 - i $end
$upscope $end
$upscope $end
$upscope $end
$enddefinitions $end
$comment Show the parameter values. $end
$dumpall
b111 -
b110 ,
b101 +
b100 *
b11 )
b10 (
b1 '
b0 &
$end
#0
$dumpvars
b11111111 %
b0 $
b0 #
b0 "
b11111111 !
$end
#10
b11111110 !
b11111110 %
b1 "
b1 $
b1 #
#20
b11111101 !
b11111101 %
b10 "
b10 $
b10 #
#30
b11111100 !
b11111100 %
b11 "
b11 $
b11 #
#40
b11111011 !
b11111011 %
b100 "
b100 $
b100 #
#50
b11111010 !
b11111010 %
b101 "
b101 $
b101 #
#60
b11111001 !
b11111001 %
b110 "
b110 $
b110 #
#70
b11111000 !
b11111000 %
b111 "
b111 $
b111 #
#80
b11110111 !
b11110111 %
b1000 "
b1000 $
b1000 #
#90
b11110110 !
b11110110 %
b1001 "
b1001 $
b1001 #
#100
b11110101 !
b11110101 %
b1010 "
b1010 $
b1010 #
#110
b11110100 !
b11110100 %
b1011 "
b1011 $
b1011 #
#120
b11110011 !
b11110011 %
b1100 "
b1100 $
b1100 #
#130
b11110010 !
b11110010 %
b1101 "
b1101 $
b1101 #
#140
b11110001 !
b11110001 %
b1110 "
b1110 $
b1110 #
#150
b11110000 !
b11110000 %
b1111 "
b1111 $
b1111 #
#160
b10000 #
